Response{protocol=http/1.1, code=200, message=OK, url=https://market.yandex.ru/catalog--smartfony/16814639/list?glfilter=16816262%3A16816264&hid=91491&cpa=1}


yandexuid=3762585581608274557
Domain=.yandex.ru
Path=/
Expires=Wed, 18 Dec 2030 06:55:57 GMT
Secure)
skid=2484452621608274557
Domain=.yandex.ru
Path=/
Expires=Wed, 18 Dec 2030 06:55:57 GMT
Secure)
visits=1608274557-1608274557-1608274557
Domain=.market.yandex.ru
Path=/
Expires=Thu, 31 Dec 2037 21:00:00 GMT
Secure)
parent_reqid_seq=1608274557151%2Ffe92a550128642642929ae99b7b60500
Domain=market.yandex.ru
Path=/
Secure)
cmp-merge=true
Domain=.market.yandex.ru
Path=/
Expires=Thu, 31 Dec 2037 21:00:00 GMT)
reviews-merge=true
Domain=.market.yandex.ru
Path=/
Expires=Thu, 31 Dec 2037 21:00:00 GMT)
i=FhtC17Q7PtsV790C+Q9k4rhFNwjG2DIleS2UUbOw8mBqG1dtiV3JOQjcbL/DNGMy2jHQgblEluVBDGNlN5NL2SNZf18=
Expires=Sun, 18-Dec-2022 06:55:57 GMT
Domain=.yandex.ru
Path=/
Secure
HttpOnly)

=============================================================================================================================
mda=0
yandex_gid=2
yandexuid=3733337101606913014
yuidss=3733337101606913014
is_gdpr=0
is_gdpr_b=CLuMORDvDygC
ymex=1922383988.yrts.1607023988
gdpr=0
_ym_uid=1607023989335427302
my=YwA=
L=SEB3VFBdd0NLQAsBYwVTU1xzY3FDQwZkY2wbQDUWBQk4HQ==.1607024032.14438.338608.a8fa559891369fed612f61dac4a30dff
yandex_login=S-asteroid
i=GpY7HKm+TQWitlqu7hfFwvLTp27p26PftX2Z69ta4lRIIITJoC+W1Fua3bHVBq+U3GewIVcxhZAwjKPZCIt55j8dvNk=
Session_id=3:1608016914.5.0.1607024032490:U6gSBQ:23.1|9132359.0.2|227313.667562.JLb_RYJHz1MMDbF3e930bXfIEMk
sessionid2=3:1608016914.5.0.1607024032490:U6gSBQ:23.1|9132359.0.2|227313.777351.3rXDP_oz_wr1dnk_5dYgHDtAjrc
zm=m-white_bender_zen-ssr.webp.css-https%3As3home-static_Oe8AnfPFQ8WXeZSxM-H_W-BPH08%3Al
_ym_isad=2
currentRegionId=2
currentRegionName=%D0%A1%D0%B0%D0%BD%D0%BA%D1%82-%D0%9F%D0%B5%D1%82%D0%B5%D1%80%D0%B1%D1%83%D1%80%D0%B3
mOC=1
gEgLRoDl=1
fFgLPoDk=1
ugcp=1
ys=mclid.2233626
_ym_d=1608271360
yp=1609505014.ygu.1#1623984497.szm.1:1920x1080:1920x921#1922384032.udn.cDpTLWFzdGVyb2lk#1608530560.clh.2233626
yc=1608530560.zen.cacS%3A1608274959
yabs-frequency=/5/00010000000JPDXV/m_5oS9G0002GFY4b5K5jXW0008G-9m00/
skid=9692593031608271503
visits=1608216496-1608216496-1608271503
parent_reqid_seq=1608271503286%2F10f52b7c7a0f773291e1a7e3b6b60500